{
  "default": "spack",
  "types": [
    {
      "name": "spack",
      "versions": [
        "v0.23",
        "v0.22",
        "v0.21",
        "develop"
      ],
      "default": "v0.23",
      "description": "Spack is a package manager for supercomputers, Linux, and macOS. It makes installing scientific software easy. Spack isn't tied to a particular language; you can build a software stack in Python or R, link to libraries written in C, C++, or Fortran, and easily swap compilers or target specific microarchitectures."
    },
    {
      "name": "conda",
      "versions": [
        "Latest"
      ],
      "default": "Latest",
      "description": "Conda is an open source package management and environment management system. This stack delivers a custom anaconda/miniconda type deployment based on the communities 'conda-forge' channel with 'conda'/'mamba' as the package manager."
    },
    {
      "name": "micromamba",
      "versions": [
        "Latest"
      ],
      "default": "Latest",
      "description": "Micromamba is a standalone version of Mamba which is an alternative to Conda. This stack delivers a custom anaconda/miniconda type deployment based on the communities 'conda-forge' channel with 'micromamba' as the package manager."
    },
    {
      "name": "custom",
      "versions": [
        "N/A"
      ],
      "default": "N/A",
      "description": "Custom Hand Build Packages."
    },
    {
      "name": "sstack",
      "versions": [
        "Latest"
      ],
      "default": "Latest",
      "description": "sstack is a tool to install multiple software stacks, such as Spack, EasyBuild, and Conda. These stacks are then linked together, using lmod module files, to easily integrate with most HPC environments."
    },
    {
      "name": "easybuild",
      "versions": [
        "Latest"
      ],
      "default": "Latest",
      "description": "EasyBuild is a software build and installation framework that allows you to manage (scientific) software on High Performance Computing (HPC) systems in an efficient way."
    },
    {
      "name": "shpc",
      "versions": [
        "Latest"
      ],
      "default": "Latest",
      "description": "Singularity Registry HPC (shpc) allows you to install containers as modules."
    },
    {
      "name": "nix",
      "versions": [
        "Latest"
      ],
      "default": "Latest",
      "description": "Nix, the reproducable, declarative, and reliable package manager, but containarized for portability."
    },
    {
      "name": "pkgsrc",
      "versions": [
        "2023Q1",
        "2023Q2",
        "2023Q3",
        "2023Q4",
        "2024Q1"
      ],
      "default": "2024Q1",
      "description": "Pkgsrc is a framework for managing third-party software on UNIX-like systems."
    },
    {
      "name": "pixi",
      "versions": [
        "Latest"
      ],
      "default": "Latest",
      "description": "pixi is a fast software package manager built on top of the existing conda ecosystem. Spins up development environments quickly on Windows, macOS and Linux. Automatic lockfiles produce reproducible environments across operating systems (without Docker!). pixi supports Python, R, C/C++, Rust, Ruby, and many other languages."
    }
  ]
}
